D:\NAGP\Ecommerce Assignment\code_base\workspace\EBroker\src\main\java\com\nagp\java\unit\testing\models\Stock.java
D:\NAGP\Ecommerce Assignment\code_base\workspace\EBroker\src\main\java\com\nagp\java\unit\testing\exceptions\TraderNotFoundException.java
D:\NAGP\Ecommerce Assignment\code_base\workspace\EBroker\src\main\java\com\nagp\java\unit\testing\controller\EbrokerController.java
D:\NAGP\Ecommerce Assignment\code_base\workspace\EBroker\src\main\java\com\nagp\java\unit\testing\models\Trader.java
D:\NAGP\Ecommerce Assignment\code_base\workspace\EBroker\src\main\java\com\nagp\java\unit\testing\service\impl\StockServiceImpl.java
D:\NAGP\Ecommerce Assignment\code_base\workspace\EBroker\src\main\java\com\nagp\java\unit\testing\service\impl\TraderServiceImpl.java
D:\NAGP\Ecommerce Assignment\code_base\workspace\EBroker\src\main\java\com\nagp\java\unit\testing\service\StockService.java
D:\NAGP\Ecommerce Assignment\code_base\workspace\EBroker\src\main\java\com\nagp\java\unit\testing\exceptions\InsufficientFundException.java
D:\NAGP\Ecommerce Assignment\code_base\workspace\EBroker\src\main\java\com\nagp\java\unit\testing\exceptions\StockNotFoundException.java
D:\NAGP\Ecommerce Assignment\code_base\workspace\EBroker\src\main\java\com\nagp\java\unit\testing\repository\TraderRepository.java
D:\NAGP\Ecommerce Assignment\code_base\workspace\EBroker\src\main\java\com\nagp\java\unit\testing\EBrokerApplication.java
D:\NAGP\Ecommerce Assignment\code_base\workspace\EBroker\src\main\java\com\nagp\java\unit\testing\utils\Utility.java
D:\NAGP\Ecommerce Assignment\code_base\workspace\EBroker\src\main\java\com\nagp\java\unit\testing\service\TraderService.java
D:\NAGP\Ecommerce Assignment\code_base\workspace\EBroker\src\main\java\com\nagp\java\unit\testing\repository\StockRepository.java
